<svg width="83" height="73" viewBox="0 0 83 73" fill="none" xmlns="http://www.w3.org/2000/svg">
<g filter="url(#filter0_d_11_1253)">
<path fill-rule="evenodd" clip-rule="evenodd" d="M33.0014 18.7112L24 27.7126L33.0014 36.7141C33.9497 37.6623 35.4871 37.6623 36.4354 36.7141C37.3836 35.7659 37.3836 34.2284 36.4354 33.2801L33.296 30.1408H50.5014C52.5129 30.1408 54.1437 31.7715 54.1437 33.783C54.1437 35.7945 52.5129 37.4253 50.5014 37.4253H46.8592C45.5182 37.4253 44.431 38.5124 44.431 39.8534C44.431 41.1945 45.5182 42.2816 46.8592 42.2816H50.5014C55.1951 42.2816 59 38.4767 59 33.783C59 29.0894 55.1951 25.2845 50.5014 25.2845H33.296L36.4354 22.1451C37.3836 21.1969 37.3836 19.6595 36.4354 18.7112C35.4871 17.7629 33.9497 17.7629 33.0014 18.7112Z" fill="url(#paint0_linear_11_1253)"/>
</g>
<defs>
<filter id="filter0_d_11_1253" x="0" y="0" width="83" height="72.2815" filterUnits="userSpaceOnUse" color-interpolation-filters="sRGB">
<feFlood flood-opacity="0" result="BackgroundImageFix"/>
<feColorMatrix in="SourceAlpha" type="matrix" values="0 0 0 0 0 0 0 0 0 0 0 0 0 0 0 0 0 0 127 0" result="hardAlpha"/>
<feOffset dy="6"/>
<feGaussianBlur stdDeviation="12"/>
<feComposite in2="hardAlpha" operator="out"/>
<feColorMatrix type="matrix" values="0 0 0 0 0.054902 0 0 0 0 0.823529 0 0 0 0 0.886275 0 0 0 0.25 0"/>
<feBlend mode="normal" in2="BackgroundImageFix" result="effect1_dropShadow_11_1253"/>
<feBlend mode="normal" in="SourceGraphic" in2="effect1_dropShadow_11_1253" result="shape"/>
</filter>
<linearGradient id="paint0_linear_11_1253" x1="24" y1="18" x2="62.7217" y2="31.9536" gradientUnits="userSpaceOnUse">
<stop stop-color="#0ED2E2"/>
<stop offset="1" stop-color="#146BAE"/>
</linearGradient>
</defs>
</svg>
