<svg width="19" height="20" viewBox="0 0 19 20" fill="none" xmlns="http://www.w3.org/2000/svg">
<path d="M18.9233 5.42648L18.9227 5.41087C18.9135 5.21877 18.9074 5.01557 18.9036 4.78947C18.8864 3.68667 17.9599 2.77447 16.7943 2.71287C14.3639 2.58457 12.4839 1.83477 10.8775 0.353275L10.8638 0.340875C10.3398 -0.113625 9.54943 -0.113625 9.02533 0.340875L9.01163 0.353275C7.40523 1.83477 5.52513 2.58457 3.09483 2.71297C1.92933 2.77447 1.00273 3.68668 0.985428 4.78958C0.981928 5.01418 0.975627 5.21747 0.966427 5.41087L0.965427 5.44707C0.918227 7.79187 0.859527 10.7102 1.89133 13.3589C2.45863 14.8155 3.31783 16.0817 4.44503 17.1225C5.72863 18.3078 7.41003 19.2488 9.44233 19.9193C9.50853 19.9411 9.57723 19.9588 9.64723 19.9721C9.74583 19.9907 9.84523 20 9.94453 20C10.0439 20 10.1434 19.9907 10.2419 19.9721C10.3119 19.9588 10.3811 19.9409 10.4475 19.919C12.4774 19.2473 14.157 18.3058 15.4396 17.1207C16.5662 16.0796 17.4255 14.8131 17.9933 13.3562C19.029 10.6995 18.9704 7.77568 18.9233 5.42648ZM16.8296 12.9501C15.7413 15.7419 13.5199 17.6592 10.0382 18.8112C10.0258 18.8152 10.0126 18.8187 9.99893 18.8213C9.96293 18.828 9.92633 18.828 9.88993 18.8211C9.87633 18.8185 9.86313 18.8152 9.85083 18.8112C6.36553 17.6613 4.14263 15.7451 3.05513 12.9532C2.10413 10.5116 2.15803 7.83277 2.20563 5.46947L2.20593 5.45637C2.21563 5.25327 2.22203 5.04057 2.22563 4.80687C2.23333 4.31717 2.64553 3.91207 3.16403 3.88477C4.53933 3.81207 5.74753 3.56067 6.85773 3.11597C7.96643 2.67197 8.95113 2.04608 9.86783 1.20258C9.91443 1.16528 9.97493 1.16518 10.0213 1.20258C10.9381 2.04608 11.9228 2.67197 13.0314 3.11597C14.1415 3.56067 15.3498 3.81207 16.7252 3.88477C17.2437 3.91207 17.6559 4.31717 17.6635 4.80697C17.6672 5.04197 17.6737 5.25467 17.6833 5.45637C17.7307 7.82237 17.7833 10.5034 16.8296 12.9501Z" fill="white"/>
<path d="M12.3243 7.26438L8.58044 10.8226L7.56433 9.85677C7.19363 9.50457 6.59274 9.50457 6.22214 9.85677C5.85174 10.2091 5.85174 10.7802 6.22214 11.1322L7.90953 12.7359C8.09483 12.9121 8.33764 13 8.58044 13C8.82324 13 9.06613 12.9121 9.25143 12.7359L13.6665 8.53967C14.0369 8.18747 14.0369 7.61637 13.6665 7.26438C13.2959 6.91188 12.695 6.91188 12.3243 7.26438Z" fill="white"/>
</svg>
