<svg width="26" height="22" viewBox="0 0 26 22" fill="none" xmlns="http://www.w3.org/2000/svg">
<path d="M0.759177 10.4998L6.5068 12.6496L8.74738 19.8806C8.8448 20.3692 9.4293 20.4669 9.81897 20.1738L13.0337 17.5354C13.326 17.2423 13.8131 17.2423 14.2027 17.5354L19.9503 21.7373C20.34 22.0304 20.9245 21.835 21.0219 21.3464L25.3083 0.825854C25.4057 0.33727 24.9186 -0.15131 24.4315 0.0441236L0.759177 9.22951C0.174675 9.42494 0.174675 10.3044 0.759177 10.4998ZM8.45514 11.5747L19.7555 4.63681C19.9503 4.5391 20.1452 4.83225 19.9503 4.92997L10.6957 13.6268C10.4035 13.9199 10.1112 14.3108 10.1112 14.7994L9.81897 17.1446C9.81897 17.4377 9.33188 17.5354 9.23446 17.1446L8.06545 12.845C7.7732 12.3564 7.96806 11.7701 8.45514 11.5747Z" fill="white"/>
</svg>
