<svg width="25" height="25" viewBox="0 0 25 25" fill="none" xmlns="http://www.w3.org/2000/svg">
<path fill-rule="evenodd" clip-rule="evenodd" d="M5 0C2.23858 0 0 2.23858 0 5V20C0 22.7614 2.23858 25 5 25H20C22.7614 25 25 22.7614 25 20V5C25 2.23858 22.7614 0 20 0H5ZM12.7499 12.5375C14.5771 12.5375 16.0585 10.7383 16.0585 8.51877C16.0585 6.29924 15.5721 4.5 12.7499 4.5C9.92762 4.5 9.44116 6.29924 9.44116 8.51877C9.44116 10.7383 10.9226 12.5375 12.7499 12.5375ZM18.992 18.5113C18.9307 14.6449 18.4258 13.5432 14.5617 12.8458C14.5617 12.8458 14.0177 13.5389 12.75 13.5389C11.4822 13.5389 10.9381 12.8458 10.9381 12.8458C7.1162 13.5356 6.58053 14.621 6.5101 18.3857C6.50432 18.6931 6.50164 18.7093 6.50061 18.6736C6.50084 18.7405 6.50113 18.8641 6.50113 19.0798C6.50113 19.0798 7.42108 20.9344 12.75 20.9344C18.0787 20.9344 18.9988 19.0798 18.9988 19.0798C18.9988 18.9412 18.9989 18.8449 18.999 18.7793C18.998 18.8014 18.9959 18.7586 18.992 18.5113Z" fill="white" fill-opacity="0.2"/>
</svg>
