<svg xmlns="http://www.w3.org/2000/svg" width="2831.189" height="1588.706" viewBox="0 0 2831.189 1588.706">
  <path id="Контур_526" data-name="Контур 526" d="M1815.842,1020.793c191.867-287.977,512.95-443.341,1034.055-443.341,22.071,0,27.872,37.863,6.015,40.983-643.336,91.718-654.133,970.271-1146.208,970.271C981.367,1588.706,1177.677,20.423,61.48,81.212c-26.185,1.434-32.162-36.2-6.644-42.267,990.14-235.1,1369.457,657.656,1562.193,981.847,50.521,84.961,144.291,81.84,198.813,0" transform="translate(-38.483)" fill="#c9965b" opacity="0.089"/>
</svg>
