<svg width="26" height="27" viewBox="0 0 26 27" fill="none" xmlns="http://www.w3.org/2000/svg">
<path d="M13.1748 6.164C14.8769 6.164 16.2568 4.78414 16.2568 3.082C16.2568 1.37986 14.8769 0 13.1748 0C11.4726 0 10.0928 1.37986 10.0928 3.082C10.0928 4.78414 11.4726 6.164 13.1748 6.164Z" fill="white"/>
<path d="M13.1752 26.3499C14.1963 26.3499 15.0242 25.522 15.0242 24.5009C15.0242 23.4797 14.1963 22.6519 13.1752 22.6519C12.154 22.6519 11.3262 23.4797 11.3262 24.5009C11.3262 25.522 12.154 26.3499 13.1752 26.3499Z" fill="white"/>
<path d="M5.60212 8.99185C7.13416 8.99185 8.37613 7.74989 8.37613 6.21785C8.37613 4.68581 7.13416 3.44385 5.60212 3.44385C4.07009 3.44385 2.82812 4.68581 2.82812 6.21785C2.82812 7.74989 4.07009 8.99185 5.60212 8.99185Z" fill="white"/>
<path d="M20.748 22.904C21.5991 22.904 22.289 22.2141 22.289 21.363C22.289 20.512 21.5991 19.822 20.748 19.822C19.897 19.822 19.207 20.512 19.207 21.363C19.207 22.2141 19.897 22.904 20.748 22.904Z" fill="white"/>
<path d="M2.465 16.2571C3.82638 16.2571 4.93 15.1535 4.93 13.7921C4.93 12.4308 3.82638 11.3271 2.465 11.3271C1.10362 11.3271 0 12.4308 0 13.7921C0 15.1535 1.10362 16.2571 2.465 16.2571Z" fill="white"/>
<path d="M23.8834 15.0231C24.5638 15.0231 25.1154 14.4715 25.1154 13.7911C25.1154 13.1107 24.5638 12.5591 23.8834 12.5591C23.203 12.5591 22.6514 13.1107 22.6514 13.7911C22.6514 14.4715 23.203 15.0231 23.8834 15.0231Z" fill="white"/>
<path d="M4.07659 19.8401C3.23359 20.6831 3.23359 22.0471 4.07659 22.8901C4.91859 23.7331 6.28459 23.7331 7.12659 22.8901C7.96959 22.0471 7.96959 20.6831 7.12659 19.8401C6.28459 18.9961 4.91959 18.9881 4.07659 19.8401Z" fill="white"/>
<path d="M20.7472 7.14195C21.2576 7.14195 21.6712 6.72826 21.6712 6.21795C21.6712 5.70763 21.2576 5.29395 20.7472 5.29395C20.2369 5.29395 19.8232 5.70763 19.8232 6.21795C19.8232 6.72826 20.2369 7.14195 20.7472 7.14195Z" fill="white"/>
</svg>
