<svg width="92" height="26" viewBox="0 0 92 26" fill="none" xmlns="http://www.w3.org/2000/svg">
<path d="M12.7026 1.24347e-06C14.6367 -0.000848757 16.5462 0.434088 18.2892 1.2725L19.0892 1.68917L17.9226 2.7225L16.1751 0.922503L13.1634 3.56417L11.3901 1.66667L5.85175 6.58916L9.39758 10.4558L8.01425 11.6558L11.5126 15.5225L10.1292 16.7225L15.1334 22.2225L18.0951 19.5333L20.6784 22.4167C20.1676 22.8 19.6092 23.1858 19.0117 23.5217C17.0971 24.5933 14.9392 25.1552 12.7451 25.1533C5.70842 25.1383 8.18046e-05 19.4967 8.18046e-05 12.5583C-0.0249182 5.66667 5.68342 1.24347e-06 12.7026 1.24347e-06ZM10.3692 11.79L13.4059 9.10083L16.1267 12.1025L13.0901 14.7917L10.3692 11.79ZM12.5317 16.9767L15.5434 14.2633L18.2884 17.2633L15.2517 19.9525L12.5317 16.9767ZM8.20842 6.6775L11.2434 3.98833L13.9634 6.99L10.9267 9.6792L8.20842 6.6775ZM13.7692 5.23583L16.0192 3.21917L18.0609 5.4525L15.8109 7.49417L13.7692 5.23583ZM17.8026 14.48L20.0526 12.4633L22.0942 14.72L19.8434 16.7358L17.8026 14.48ZM19.8026 19.0183L22.0526 17.0017L24.0917 19.235L21.8417 21.275L19.8026 19.0183ZM20.7267 8.6525L22.2326 7.3075L23.5926 8.79667L22.0867 10.1408L20.7267 8.6525ZM18.7834 4.21083L20.2892 2.8425L21.6501 4.355L20.1434 5.7L18.7834 4.21083ZM22.6451 13.0958L24.1509 11.7508L25.5342 13.24L24.0042 14.5842L22.6451 13.0958ZM15.8684 9.7583L18.1184 7.74167L20.1584 9.975L17.9084 11.9917L15.8684 9.7583ZM31.5734 6.39667H32.7934L34.6984 13.6833H34.7942L36.1926 6.39667H37.7959L35.5834 16.1525H34.1034L32.2401 9.27917H32.1434L30.3334 16.1525H28.8542L26.6251 6.3875H28.1601L29.6951 13.6742H29.7909L31.5734 6.39667ZM39.7434 12.005H42.8809C42.8126 10.5592 42.1142 9.9817 41.3809 9.9817C40.5451 9.9817 39.9001 10.6292 39.7501 12.005H39.7434ZM43.9834 14.595V15.6417C43.3667 16 42.5451 16.275 41.5667 16.275C39.2651 16.275 38.3192 14.8417 38.3192 12.6667C38.3192 10.5725 39.3742 9.05833 41.4301 9.05833C43.1426 9.05833 44.1984 10.175 44.1984 12.4192V12.9292H39.7317C39.7317 14.5817 40.4026 15.3125 41.8151 15.3125C42.5551 15.3125 43.2317 15.05 43.9934 14.5958L43.9834 14.595ZM47.3876 15.1792C47.8259 15.3708 48.3059 15.4008 48.6492 15.4008C49.6634 15.4008 50.4301 14.7675 50.4301 12.5358C50.4301 10.7858 49.8001 10.2217 48.8817 10.2217C48.3334 10.2217 47.9359 10.3733 47.3876 10.6758V15.1792ZM47.4017 9.6567C47.8117 9.43667 48.5101 9.14667 49.2517 9.14667C50.9517 9.14667 51.8701 10.33 51.8701 12.535C51.8701 15.1183 50.6367 16.3642 48.6501 16.3642C47.7202 16.3385 46.8074 16.108 45.9767 15.6892V6.05917L47.3934 5.715V9.6317L47.4017 9.6567ZM58.3384 16.1567H57.4617L54.6651 9.2425H54.5426V16.1567H53.3092V6.39H54.9759L58.0451 14.09H58.1134L61.0467 6.39H62.7467V16.1567H61.2501V9.06917H61.1267L58.3384 16.1567ZM68.7859 12.6667C68.7859 10.8083 68.0326 10.0225 67.1009 10.0225C66.1967 10.0225 65.4151 10.8075 65.4151 12.6667C65.4151 14.5542 66.1284 15.3108 67.1009 15.3108C68.0734 15.3108 68.7859 14.5542 68.7859 12.6667ZM63.9759 12.6667C63.9759 10.2558 65.2926 9.05833 67.1009 9.05833C68.9092 9.05833 70.2259 10.2558 70.2259 12.6667C70.2259 15.0217 68.9792 16.275 67.1009 16.275C65.2226 16.275 63.9759 15.0208 63.9759 12.6667ZM71.2917 10.0692C71.9084 9.6967 73.2109 9.04917 74.7867 9.04917C76.4309 9.04917 77.0467 9.6967 77.0467 11.1158V16.1025H75.6301V11.4333C75.6301 10.3458 75.0967 10.1525 74.3967 10.1525C73.8492 10.1525 73.1492 10.4008 72.7251 10.6483V16.1025H71.3084L71.2917 10.0692ZM80.0634 11.9958H83.2017C83.1351 10.55 82.4351 9.9725 81.7017 9.9725C80.8659 9.9725 80.2226 10.62 80.0709 11.9958H80.0634ZM84.3042 14.5858V15.6325C83.6876 15.9908 82.8659 16.2658 81.8876 16.2658C79.5876 16.2658 78.6401 14.8325 78.6401 12.6575C78.6401 10.5633 79.6951 9.04917 81.7509 9.04917C83.4642 9.04917 84.5201 10.1658 84.5201 12.41V12.92H80.0517C80.0517 14.5725 80.7234 15.3033 82.1351 15.3033C82.8742 15.3033 83.5517 15.0408 84.3134 14.5867L84.3042 14.5858ZM90.2134 9.04917H91.6667L89.1859 15.935C88.5001 17.835 87.6642 18.8267 86.0892 18.8267V17.6983C87.0226 17.6983 87.5892 16.9542 87.9259 15.9342L85.2942 9.04833H86.7942L88.5484 14.1167H88.6317L90.2134 9.04917Z" fill="white"/>
</svg>
