<svg width="78" height="34" viewBox="0 0 78 34" fill="none" xmlns="http://www.w3.org/2000/svg">
<path fill-rule="evenodd" clip-rule="evenodd" d="M0.666992 5.94741C0.666992 2.66298 3.33785 0 6.63081 0H71.6262C74.9206 0 77.59 2.66298 77.59 5.94741V27.2013C77.59 30.4839 74.9206 33.1473 71.6262 33.1473H6.63081C3.33785 33.1473 0.666992 30.4839 0.666992 27.2013V5.94741Z" fill="#000268"/>
<path fill-rule="evenodd" clip-rule="evenodd" d="M3.11523 6.15094V26.9998C3.11523 29.0518 4.78467 30.7162 6.84396 30.7162H40.8957V2.43457H6.84396C4.78467 2.43457 3.11523 4.09886 3.11523 6.15094ZM49.694 16.4712C49.694 17.7986 49.0388 18.7109 47.9541 18.7109C46.9958 18.7109 46.197 17.7986 46.197 16.583C46.197 15.3353 46.8996 14.4076 47.9541 14.4076C49.0724 14.4076 49.694 15.3675 49.694 16.4712ZM43.325 24.0844H46.197V19.5575H46.2291C46.7731 20.5494 47.8593 20.917 48.8645 20.917C51.3381 20.917 52.6627 18.8702 52.6627 16.4069C52.6627 14.3923 51.4022 12.1996 49.103 12.1996C47.7951 12.1996 46.5821 12.728 46.0059 13.8961H45.9738V12.393H43.325V24.0844ZM56.5854 18.0861C56.5854 17.287 57.3507 16.9842 58.3257 16.9842C58.7563 16.9842 59.172 17.0145 59.5388 17.0317C59.5388 18.0069 58.8525 18.9989 57.7664 18.9989C57.0959 18.9989 56.5854 18.6634 56.5854 18.0861ZM62.3787 20.7255C62.2518 20.0705 62.2197 19.4135 62.2197 18.7584V15.6554C62.2197 13.1124 60.385 12.1996 58.2616 12.1996C57.0332 12.1996 55.9638 12.3757 54.9418 12.7923L54.9906 14.7445C55.7861 14.2958 56.7137 14.1197 57.6394 14.1197C58.6753 14.1197 59.5216 14.4245 59.5388 15.5604C59.172 15.4961 58.66 15.4471 58.1974 15.4471C56.6663 15.4471 53.9045 15.7519 53.9045 18.2944C53.9045 20.1027 55.3723 20.917 57.0164 20.917C58.1974 20.917 58.9962 20.4549 59.6504 19.4135H59.6825C59.6825 19.8469 59.7294 20.2768 59.7466 20.7255H62.3787ZM63.6712 24.0844C64.2622 24.213 64.8522 24.2778 65.4585 24.2778C68.0925 24.2778 68.7141 22.2459 69.5282 20.1501L72.5779 12.393H69.704L67.9962 17.8308H67.9641L66.1764 12.393H63.0812L66.4484 20.917C66.2406 21.6532 65.6984 22.0698 64.9954 22.0698C64.595 22.0698 64.2454 22.0208 63.8618 21.8936L63.6712 24.0844Z" fill="white"/>
<path fill-rule="evenodd" clip-rule="evenodd" d="M10.1313 16.488C10.1313 15.3521 10.6907 14.4076 11.7601 14.4076C13.0526 14.4076 13.5948 15.4471 13.5948 16.3747C13.5948 17.6547 12.7806 18.518 11.7601 18.518C10.8985 18.518 10.1313 17.7833 10.1313 16.488ZM16.3724 12.393H13.7705V13.8961H13.7403C13.1321 12.872 12.1417 12.1996 10.9138 12.1996C8.32872 12.1996 7.16309 14.0568 7.16309 16.5355C7.16309 18.9988 8.58402 20.7255 10.8645 20.7255C12.0153 20.7255 12.9731 20.2768 13.6589 19.3017H13.691V19.7504C13.691 21.3811 12.7974 22.1648 11.1385 22.1648C9.94072 22.1648 9.20562 21.909 8.32872 21.4776L8.18506 23.7494C8.85412 23.9898 9.98772 24.2778 11.3616 24.2778C14.7135 24.2778 16.3724 23.1735 16.3724 19.7504V12.393ZM21.228 8.92236H18.3546V11.0335H21.228V8.92236ZM18.356 20.7255H21.228V12.393H18.356V20.7255ZM29.2276 12.2961C28.9403 12.249 28.5888 12.1996 28.2545 12.1996C27.0093 12.1996 26.2915 12.872 25.7963 13.9282H25.7642V12.393H23.147V20.7255H26.0194V17.2079C26.0194 15.5757 26.7709 14.6006 28.1108 14.6006C28.447 14.6006 28.7645 14.6006 29.084 14.6951L29.2276 12.2961ZM34.1743 18.9024C32.8496 18.9024 32.3075 17.7986 32.3075 16.5677C32.3075 15.3199 32.8496 14.2162 34.1743 14.2162C35.5004 14.2162 36.0429 15.3199 36.0429 16.5677C36.0429 17.7986 35.5004 18.9024 34.1743 18.9024ZM34.1743 20.917C36.9198 20.917 39.0112 19.319 39.0112 16.5677C39.0112 13.7996 36.9198 12.1996 34.1743 12.1996C31.4292 12.1996 29.3393 13.7996 29.3393 16.5677C29.3393 19.319 31.4292 20.917 34.1743 20.917Z" fill="#FF0007"/>
</svg>
